HW6
…
From the graph, we can tell that as the number of trees increase,
their performance increase as well. when randomly selecting 3-4
predictors, the model performance is better, but as predictors increase,
the performance will decarease. Also we notice that the minimal node
size will not affect performance significantly.

Q7

arrange(collect_metrics(rand_res),desc(mean))

## # A tibble: 512 x 9
##     mtry trees min_n .metric .estimator  mean     n std_err .config             
##    <int> <int> <int> <chr>   <chr>      <dbl> <int>   <dbl> <chr>               
##  1     6    80     5 roc_auc hand_till  0.740     5  0.0156 Preprocessor1_Model~
##  2     8    80     2 roc_auc hand_till  0.738     5  0.0154 Preprocessor1_Model~
##  3     6   360     4 roc_auc hand_till  0.737     5  0.0134 Preprocessor1_Model~
##  4     5   500     5 roc_auc hand_till  0.736     5  0.0156 Preprocessor1_Model~
##  5     5   150     1 roc_auc hand_till  0.736     5  0.0178 Preprocessor1_Model~
##  6     8   360     3 roc_auc hand_till  0.736     5  0.0162 Preprocessor1_Model~
##  7     7   220     6 roc_auc hand_till  0.735     5  0.0147 Preprocessor1_Model~
##  8     4    80     4 roc_auc hand_till  0.735     5  0.0162 Preprocessor1_Model~
##  9     7   360     4 roc_auc hand_till  0.735     5  0.0142 Preprocessor1_Model~
## 10     7   430     5 roc_auc hand_till  0.735     5  0.0140 Preprocessor1_Model~
## # ... with 502 more rows
…
